<svg width="24" height="25" viewBox="0 0 24 25" fill="none" xmlns="http://www.w3.org/2000/svg">
<path d="M18 0C14.7 0 12 2.7 12 6C12 6.992 12.383 8.004 12.875 9.125C13.396 10.2913 13.9802 11.4283 14.625 12.531C15.4274 13.907 16.2823 15.2517 17.188 16.562L18 17.75L18.813 16.562C18.813 16.562 20.102 14.727 21.375 12.532C22.0199 11.429 22.6041 10.2917 23.125 9.125C23.617 8.004 24 6.992 24 6C24 2.7 21.3 0 18 0ZM7.969 1.938L0 5.344V24.53L8.031 21.062L16.031 24.062L24 20.655V11.937C23.38 13.1092 22.7128 14.2558 22 15.374V19.343L17 21.468V19.843L15.531 17.718C15.375 17.491 15.191 17.222 15 16.936V21.561L9 19.311V4.438L10.094 4.845C10.1873 4.17893 10.3657 3.5276 10.625 2.907L7.969 1.938ZM18 2C20.219 2 22 3.781 22 6C22 6.387 21.758 7.3 21.312 8.313C20.867 9.324 20.238 10.473 19.625 11.531C18.809 12.937 18.457 13.437 18 14.125C17.543 13.437 17.191 12.937 16.375 11.531C15.762 10.473 15.133 9.324 14.687 8.312C14.242 7.302 14 6.387 14 6C14 3.781 15.781 2 18 2ZM7 4.5V19.344L2 21.469V6.656L7 4.5ZM18 4.5C17.6022 4.5 17.2206 4.65804 16.9393 4.93934C16.658 5.22064 16.5 5.60218 16.5 6C16.5 6.39782 16.658 6.77936 16.9393 7.06066C17.2206 7.34196 17.6022 7.5 18 7.5C18.3978 7.5 18.7794 7.34196 19.0607 7.06066C19.342 6.77936 19.5 6.39782 19.5 6C19.5 5.60218 19.342 5.22064 19.0607 4.93934C18.7794 4.65804 18.3978 4.5 18 4.5Z" fill="white"/>
</svg>
