<?xml version="1.0" encoding="utf-8"?>
<!-- Generator: Adobe Illustrator 23.0.6, SVG Export Plug-In . SVG Version: 6.00 Build 0)  -->
<svg version="1.1" id="Calque_1" xmlns="http://www.w3.org/2000/svg" xmlns:xlink="http://www.w3.org/1999/xlink" x="0px" y="0px"
	 viewBox="0 0 29.3 35.4" style="enable-background:new 0 0 29.3 35.4;" xml:space="preserve">
<style type="text/css">
	.st0{fill-rule:evenodd;clip-rule:evenodd;fill:#BFBFBF;}
	.st1{fill-rule:evenodd;clip-rule:evenodd;fill:#4689A6;}
	.st2{fill-rule:evenodd;clip-rule:evenodd;fill:#A0C35B;}
	.st3{fill:#405E11;}
	.st4{fill-rule:evenodd;clip-rule:evenodd;fill:#C8C8C8;}
	.st5{fill-opacity:0.5;}
	.st6{fill:#BFBFBF;}
	.st7{fill:#C8C8C8;}
	.st8{fill:#E84029;}
	.st9{fill:#FFFFFF;}
	.st10{fill-rule:evenodd;clip-rule:evenodd;fill:#405E11;}
	.st11{fill:#F3F3F3;stroke:#DEDEDE;}
	.st12{fill:#5FBCE3;}
	.st13{fill:#A0C35B;}
	.st14{fill:#040404;}
</style>
<path class="st4" d="M14.7,0L25,10.4c2.9,2.9,4.3,6.7,4.3,10.3c0,3.7-1.4,7.5-4.3,10.4c-2.9,2.9-6.6,4.3-10.4,4.3
	c-3.8,0-7.5-1.4-10.4-4.3C1.4,28.2,0,24.4,0,20.7c0-3.7,1.4-7.5,4.3-10.3L14.7,0z M6.9,13.3c-2.1,2.1-3.2,4.4-3.2,8.1h22
	c0-3.7-1.1-5.9-3.2-8l-7.8-8L6.9,13.3z"/>
</svg>
