<?xml version="1.0" encoding="utf-8"?>
<!-- Generator: Adobe Illustrator 23.0.6, SVG Export Plug-In . SVG Version: 6.00 Build 0)  -->
<svg version="1.1" id="Calque_1" xmlns="http://www.w3.org/2000/svg" xmlns:xlink="http://www.w3.org/1999/xlink" x="0px" y="0px"
	 viewBox="0 0 50.8 35.6" style="enable-background:new 0 0 50.8 35.6;" xml:space="preserve">
<style type="text/css">
	.st0{fill-rule:evenodd;clip-rule:evenodd;fill:#BFBFBF;}
	.st1{fill-rule:evenodd;clip-rule:evenodd;fill:#4689A6;}
	.st2{fill-rule:evenodd;clip-rule:evenodd;fill:#A0C35B;}
	.st3{fill:#405E11;}
	.st4{fill-rule:evenodd;clip-rule:evenodd;fill:#C8C8C8;}
	.st5{fill-opacity:0.5;}
	.st6{fill:#BFBFBF;}
	.st7{fill:#C8C8C8;}
	.st8{fill:#E84029;}
	.st9{fill:#FFFFFF;}
	.st10{fill-rule:evenodd;clip-rule:evenodd;fill:#405E11;}
	.st11{fill:#F3F3F3;stroke:#DEDEDE;}
	.st12{fill:#5FBCE3;}
	.st13{fill:#A0C35B;}
	.st14{fill:#040404;}
</style>
<g>
	<path class="st2" d="M17.8,17.8c4.9,0,8.9-4,8.9-8.9S22.7,0,17.8,0c-4.9,0-8.9,4-8.9,8.9S12.9,17.8,17.8,17.8z M0,31.1
		c0-5.9,11.8-8.9,17.8-8.9c5.9,0,17.8,3,17.8,8.9v4.4H0V31.1z M17.8,27.3c-4.5,0-9.7,1.7-11.8,3.2h23.7C27.5,29,22.3,27.3,17.8,27.3
		z M21.6,8.9c0-2.1-1.7-3.8-3.8-3.8c-2.1,0-3.8,1.7-3.8,3.8s1.7,3.8,3.8,3.8C19.9,12.7,21.6,11,21.6,8.9z M35.7,22.4
		c2.9,2.1,5,5,5,8.7v4.4h10.2v-4.4C50.8,26,41.9,23.1,35.7,22.4z M41.9,8.9c0,4.9-4,8.9-8.9,8.9c-1.4,0-2.6-0.3-3.8-0.9
		c1.6-2.3,2.5-5,2.5-8s-0.9-5.7-2.5-8C30.4,0.3,31.7,0,33,0C37.9,0,41.9,4,41.9,8.9z"/>
</g>
</svg>
