<?xml version="1.0" encoding="utf-8"?>
<!-- Generator: Adobe Illustrator 23.0.6, SVG Export Plug-In . SVG Version: 6.00 Build 0)  -->
<svg version="1.1" id="Calque_1" xmlns="http://www.w3.org/2000/svg" xmlns:xlink="http://www.w3.org/1999/xlink" x="0px" y="0px"
	 viewBox="0 0 45.8 49.3" style="enable-background:new 0 0 45.8 49.3;" xml:space="preserve">
<style type="text/css">
	.st0{fill-rule:evenodd;clip-rule:evenodd;fill:#BFBFBF;}
	.st1{fill-rule:evenodd;clip-rule:evenodd;fill:#4689A6;}
	.st2{fill-rule:evenodd;clip-rule:evenodd;fill:#A0C35B;}
	.st3{fill:#405E11;}
	.st4{fill-rule:evenodd;clip-rule:evenodd;fill:#C8C8C8;}
	.st5{fill-opacity:0.5;}
	.st6{fill:#BFBFBF;}
	.st7{fill:#C8C8C8;}
	.st8{fill:#E84029;}
	.st9{fill:#FFFFFF;}
	.st10{fill-rule:evenodd;clip-rule:evenodd;fill:#405E11;}
	.st11{fill:#F3F3F3;stroke:#DEDEDE;}
	.st12{fill:#5FBCE3;}
	.st13{fill:#A0C35B;}
	.st14{fill:#040404;}
</style>
<g>
	<path class="st0" d="M17.2,9.2c2.5,0,4.6-2.1,4.6-4.6c0-2.5-2.1-4.6-4.6-4.6c-2.5,0-4.6,2.1-4.6,4.6C12.6,7.1,14.7,9.2,17.2,9.2z
		 M33.2,28.1v4h12.6v3.4H33.2v4l-5.7-5.7L33.2,28.1z M27.5,41.8h12.6v-4l5.7,5.7l-5.7,5.7v-4H27.5V41.8z M2.3,49.3L8.6,17l-4,1.7
		v7.7H0V15.6l12-4.9c0.6-0.2,1.1-0.3,1.7-0.3c1.6,0,3.1,0.8,3.9,2.2l2.2,3.7c2.1,3.3,5.7,5.6,10,5.6v4.6c-5,0-9.5-2.3-12.5-6
		l-1.4,6.9l4.7,4.7v17.3H16V35.5l-4.9-4.6l-4,18.3H2.3z"/>
</g>
</svg>
