<?xml version="1.0" encoding="utf-8"?>
<!-- Generator: Adobe Illustrator 23.0.6, SVG Export Plug-In . SVG Version: 6.00 Build 0)  -->
<svg version="1.1" id="Calque_1" xmlns="http://www.w3.org/2000/svg" xmlns:xlink="http://www.w3.org/1999/xlink" x="0px" y="0px"
	 viewBox="0 0 191.6 76.5" style="enable-background:new 0 0 191.6 76.5;" xml:space="preserve">
<style type="text/css">
	.st0{fill-rule:evenodd;clip-rule:evenodd;fill:#BFBFBF;}
	.st1{fill-rule:evenodd;clip-rule:evenodd;fill:#4689A6;}
	.st2{fill-rule:evenodd;clip-rule:evenodd;fill:#A0C35B;}
	.st3{fill:#405E11;}
	.st4{fill-rule:evenodd;clip-rule:evenodd;fill:#C8C8C8;}
	.st5{fill-opacity:0.5;}
	.st6{fill:#BFBFBF;}
	.st7{fill:#C8C8C8;}
	.st8{fill:#E84029;}
	.st9{fill:#FFFFFF;}
	.st10{fill-rule:evenodd;clip-rule:evenodd;fill:#405E11;}
	.st11{fill:#F3F3F3;stroke:#DEDEDE;}
	.st12{fill:#5FBCE3;}
	.st13{fill:#A0C35B;}
	.st14{fill:#040404;}
	.st15{fill:none;stroke:#F4DABF;stroke-width:0.7;stroke-miterlimit:10;}
	.st16{fill:#1D1D1B;}
	.st17{fill:#CE6F00;}
	.st18{fill:#C00418;}
	.st19{fill:#FFD304;}
	.st20{fill:#1A171B;}
	.st21{fill:#CEC5B9;}
</style>
<g>
	<path class="st9" d="M27.2,15.5c-1.9,0.2-3.4-0.9-4.8-2.1c-1.5-1.3-3.3-2.8-6.3-2.8c-0.3,0-0.7,0-1,0.1l-1.1,0.1l0,1.1
		c-0.1,2.1-0.2,3.1-1.1,5c-1.2-2.5-3-4.8-7.5-4.8l-5.1,0l4.4,2.4c2.1,1.1,3.1,3,4.1,5c0.4,0.8,0.8,1.6,1.4,2.4l-0.1,0.4
		c-0.3,1-1.3,2.9-2.3,4.6c-0.1,0.3-0.3,0.6-0.5,0.8l-0.2,0.3l0,0.4c0.1,0.9,0.5,1.6,0.9,2.3c0.6,1.1,0.6,1.2,0.3,1.5l-0.9,0.9
		l0.9,0.9c1.4,1.4,3.1,2.1,5.3,2.1c0.5,0,0.9,0,1.5-0.1c0.1,0.1,0.2,0.2,0.3,0.3c-1.2,0.3-2.1,0.9-2.2,0.9l-0.4,0.2L12.4,38
		c-4.2,12.7,2.5,18.5,8.9,24.2c3.1,2.7,6.4,5.7,8.4,9.3l2.4,5l2.6-2.5l0.9-0.7c2-1.3,4.8-1.8,7.5-1.8c0.3,0,0.5,0,0.5,0h0.1l0.1,0
		c3-0.2,4.5-0.5,6.9-1.1l0.1,0c1.7-0.5,7.2-2.5,8-5.3l0-0.1l0-1v-1.2h0c0-0.3,0-0.9,0-1.8c0-0.5,0-1,0-1.4V12.7l0-0.1
		c-0.1-0.6-0.7-1.5-2.2-1.5c-0.1,0-0.2,0-0.3,0c-1.4,0.1-2.5,0.7-2.6,0.8c-1.9,1.1-3.5,2.6-4.3,3.5c-0.8-0.7-2-1.4-2.9-1.9
		c0.3,0,0.5-0.1,0.9-0.1c0.9,0,1.8,0.2,2.1,0.2l0.9,0.2l0.5-0.8c2.7-4.8-0.1-10.8-0.5-11.5l-0.1-0.3L50,1.2c-0.6-0.4-1.2-0.7-2-0.7
		c-3.1,0-7.4,3.3-9.1,4.8l-0.9,0.8l0.7,1c1,1.4,1.4,2.4,1.7,3c-1-0.5-2.1-0.9-2.9-1.1c0.4-0.8,0.5-1.5,0.4-2
		c-0.5-3.4-6.6-6.2-7.8-6.7l-0.1,0c-0.5-0.2-1-0.3-1.4-0.3c-0.8,0-1.2,0.3-1.4,0.6c-0.4,0.6-0.4,1.2-0.3,1.5l1.7,13.2L27.2,15.5z"/>
	<path class="st18" d="M13.5,38.5c-4,11.9,2.2,17.2,8.6,22.9c4.1,3.6,8.5,7.7,10.3,13.3c1.7-9-3.4-14.5-8.6-19.8
		C19.4,50.3,14.9,45.7,13.5,38.5z"/>
	<path class="st18" d="M4.9,13.3c2.5,1.3,3.6,3.5,4.7,5.6c1.3,2.5,2.7,5,6.2,5.4c-1.8-1.3-2.8-3.3-3.6-5.3
		C10.8,16.1,9.6,13.3,4.9,13.3z"/>
	<path class="st19" d="M56.5,12.4c-1.2,0.1-2.1,0.6-2.1,0.6c-2.7,1.5-4.6,4-4.6,4l-0.3,0.4L49.2,17c-1.2-1.6-4.8-3.1-4.8-3.1
		L44,13.8l0.2-0.4c0.5-0.8,1.6-1.3,3.2-1.3c1,0,1.9,0.2,2.4,0.2c2.4-4.3-0.2-9.7-0.5-10.3C49,1.9,48.5,1.7,48,1.7
		c-2.8,0-7.3,3.6-8.3,4.5c3,4.4,1.9,5.6,1.7,5.8l-0.2,0.2L40.9,12c-1.4-1.4-5.3-2.2-5.3-2.2l-0.8-0.2l0.6-0.5
		c0.8-0.7,1.2-1.3,1.1-2.1c-0.4-2.9-6.9-5.6-7-5.7c-0.6-0.2-1.2-0.3-1.3-0.1C28,1.5,28,1.7,28.1,1.8l0,0l1.7,13.3l2.1-0.1
		c11,0.2,13.5,7.1,15.5,14.4c0,0,2.5,9.5,8.5,13.4c0,0-4.4,1.5-7.1-0.4c0,0,0.8,2.9,1.3,7.8c0,0,0.6,5.7,5.1,10.1
		c0,0-5.9,1.3-10.4-4.2c0,0,1.6,7.9,5.9,8.7c0,0,4.5,0.9,6.9-2.6V12.8C57.6,12.8,57.5,12.3,56.5,12.4z"/>
	<path class="st20" d="M69.9,11.5h5.5c4.5,0,7.4,1.4,7.4,5.9c0,3.6-3,5.8-6.8,5.8h-1.6v6.4l-4.5,0.4V11.5z M74.4,19.4h1.3
		c1.7,0,2.6-0.7,2.6-2c0-1.2-0.9-2-2.6-2h-1.3V19.4z"/>
	<path class="st20" d="M84.9,11.5h5.2c4.3,0,7.4,1.5,7.4,5.7c0,1.9-1.1,4-3,4.7l4.9,7l-4.6,1.5l-5.3-8.6h0v8l-4.5,0.4V11.5z
		 M89.5,20.5c1.9,0.1,3.5-0.5,3.5-2.7c0-2.2-1.6-2.5-3.5-2.5V20.5z"/>
	<path class="st20" d="M119.1,20.7c0,5.3-4.4,9.6-9.8,9.6c-5.3,0-9.8-4.2-9.8-9.6s4.4-9.6,9.8-9.6C114.7,11.1,119.1,15.4,119.1,20.7
		z M104.1,20.7c0,2.8,2.4,5.4,5.2,5.4c2.9,0,5.2-2.6,5.2-5.4s-2.4-5.4-5.2-5.4C106.4,15.3,104.1,17.9,104.1,20.7z"/>
	<path class="st20" d="M126.6,20.8L126.6,20.8l3.6-9.7l4.6,0.9l-8.3,18.3h-0.1l-8-18.3l4.6-0.9L126.6,20.8z"/>
	<path class="st20" d="M140.7,11.1v18.5l-4.5,0.4V11.5L140.7,11.1z"/>
	<path class="st20" d="M160.6,30.3l-12-10.5v9.8l-4.5,0.4V11.1h0.1l12,10.2v-9.8l4.5-0.4L160.6,30.3L160.6,30.3z"/>
	<path class="st20" d="M176,16.6c-1-0.7-2.1-1.3-3.3-1.3c-3.1,0-5.3,2.2-5.3,5.4c0,3.2,2.1,5.5,5.3,5.5c1.2,0,2.5-0.7,3.4-1.4
		l-0.6,4.9c-0.8,0.4-2.4,0.7-3.2,0.7c-5.6,0-9.5-3.8-9.5-9.5c0-5.5,3.9-9.6,9.5-9.6c1,0,2.1,0.2,3,0.6L176,16.6z"/>
	<path class="st20" d="M178.5,29.9V11.5h10.4l0.8,3.9H183v3.2h4.7v3.9H183V26h7.2l-1.1,3.9H178.5z"/>
	<path class="st20" d="M76.9,42.4l1-0.2v12l-1,0.2v-1.6h0c-0.6,0.8-1.9,1.6-3.2,1.6c-2.4,0-4.3-1.8-4.3-4.4c0-2.4,1.9-4.3,4.3-4.3
		c1.4,0,2.5,0.7,3.3,1.6h0V42.4z M73.6,46.6c-2,0-3.3,1.7-3.3,3.4c0,1.9,1.3,3.4,3.3,3.4c1.8,0,3.3-1.6,3.3-3.4
		C76.9,47.8,75.4,46.6,73.6,46.6z"/>
	<path class="st20" d="M80.5,51.4c0.3,0.8,1.4,1.9,2.9,1.9c1.2,0,2.2-0.6,3.1-1.4v1.2c-0.7,0.7-2.1,1.2-3.1,1.2
		c-2.6,0-4.3-1.9-4.3-4.4c0-2.5,1.8-4.2,4.3-4.2c1.5,0,2.8,1,3.3,1.9L80.5,51.4z M85.3,47.3c-0.4-0.4-1-0.7-1.8-0.7
		c-1.9,0-3.4,1.4-3.4,3.3c0,0.2,0,0.5,0.1,0.7L85.3,47.3z"/>
	<path class="st20" d="M110.2,54.6l-12.6-11v10.4l-4.8,0.4v-20h0.1l12.6,10.8V34.8l4.8-0.4L110.2,54.6L110.2,54.6z"/>
	<path class="st20" d="M121.9,34.4l10.4,19.2l-4.9,1l-2-4.1h-7.4l-1.9,4.1l-4.6-1L121.9,34.4L121.9,34.4z M119.3,46.9h5.1l-2.6-4.7
		L119.3,46.9z"/>
	<path class="st20" d="M151.1,34.4L151.1,34.4l5.2,19.5l-4.8,0.7l-1.7-9.3h-0.1l-5.1,9.3h-0.1l-4.6-9.3h-0.1l-1.7,9.3l-4.9-0.7
		l5.3-19.5h0.1l6.1,11.8L151.1,34.4z"/>
	<path class="st20" d="M173.5,47.4c0,4.5-3.5,7.2-8.4,7.2c-4.5,0-7.7-2.1-7.7-6.8v-13l4.8-0.4v12c0,2.1,0.6,3.8,3,3.8
		c3.1,0,3.5-2.2,3.5-4.8V34.8l4.8-0.4V47.4z"/>
	<path class="st20" d="M176.2,34.8h5.4c4.5,0,7.8,1.6,7.8,6c0,2-1.2,4.2-3.1,4.9l5.2,7.3l-4.8,1.6l-5.6-9.1H181v8.4l-4.8,0.5
		L176.2,34.8L176.2,34.8z M181,44.3c2.1,0.1,3.7-0.5,3.7-2.8c0-2.3-1.7-2.7-3.7-2.6V44.3z"/>
	<path class="st20" d="M57.7,63.7c-2.7,3.9-8.3,2.4-8.3,2.4c-2.8-0.5-5.5-3.6-7.5-6.4l-0.7-0.9c0,0.1,0.1,0.1,0.1,0.1l-0.1-0.2
		c0.9,1.2,2.2,1.9,4,2.8C43.5,59.1,43,56.8,43,54c0-2.3,0.1-4.6,0.1-6.8c0-0.5,0-1-0.1-1.5L42.8,44c0,0,0,0,0,0v0
		c1.3,6,1.7,11.9,9.1,14.6c-5.3-5.7-2.7-14.1-6.2-19.8l-0.7-1c0,0,0,0,0.1,0L45,37.8c3.6,4,7,4.2,7.6,4.2c0,0,0.1,0,0.1,0
		C42.6,34.5,49.1,17,30.9,16.6c0,0-0.8,0-2.3,0.2c-7.1,1.1-7.1-5.6-13.6-5c-0.1,2.8-0.3,3.9-2.2,7.2c0.6,2.1,1.5-1.8,3.6-1.6
		l0.2,2.3l1.5-1.1c2.3,3.3,0.4,8.8-4.2,9.1l-0.1-1.9l-1.9,1.2c-0.5-2.1,0.5-3.2-1-4.4c-0.4,1.3-1.7,3.6-2.8,5.8
		c0.1,1.7,2.4,3.1,0.8,4.8c6,6,17.4-6,24.9-0.4c1.9-1,1.2-3.8,2.6-5.4c3.1,1.2,2.5,2.2,3.6,3.2c0,0-0.1,0-0.1,0c0,0,0.1,0.1,0.1,0.1
		c-1.3-0.7-1.8-1.2-3.3-0.8c-0.3,1.9-0.4,4-1.4,5c-17.7-5-9.1,3.3-19.8,3L15,37.9c0,0,1.4,7.1,6.2,12.1c0,0,7.2,7.3,8.4,8.7
		c0,0,4.7,5.7,4.6,10.5c0,0,0.1,3.6-0.2,4.2l0.4-0.4c2.6-2.8,9.4-2.5,9.4-2.5c2.9-0.2,4.3-0.4,6.7-1.1c0,0,6.5-2,7.1-4.4L57.7,63.7z
		 M28.7,22.8c0.5-0.6,1.1-2,0-2.2c2.2-2.2,2.9,3.3,5.8,2.9C33.5,25.1,30.5,22.7,28.7,22.8z"/>
</g>
</svg>
