<?xml version="1.0" encoding="utf-8"?>
<!-- Generator: Adobe Illustrator 23.0.6, SVG Export Plug-In . SVG Version: 6.00 Build 0)  -->
<svg version="1.1" id="Calque_1" xmlns="http://www.w3.org/2000/svg" xmlns:xlink="http://www.w3.org/1999/xlink" x="0px" y="0px"
	 viewBox="0 0 73.2 54.2" style="enable-background:new 0 0 73.2 54.2;" xml:space="preserve">
<style type="text/css">
	.st0{fill-rule:evenodd;clip-rule:evenodd;fill:#BFBFBF;}
	.st1{fill-rule:evenodd;clip-rule:evenodd;fill:#4689A6;}
	.st2{fill-rule:evenodd;clip-rule:evenodd;fill:#A0C35B;}
	.st3{fill:#405E11;}
	.st4{fill-rule:evenodd;clip-rule:evenodd;fill:#C8C8C8;}
	.st5{fill-opacity:0.5;}
	.st6{fill:#BFBFBF;}
	.st7{fill:#C8C8C8;}
	.st8{fill:#E84029;}
	.st9{fill:#FFFFFF;}
	.st10{fill-rule:evenodd;clip-rule:evenodd;fill:#405E11;}
	.st11{fill:#F3F3F3;stroke:#DEDEDE;}
	.st12{fill:#5FBCE3;}
	.st13{fill:#A0C35B;}
	.st14{fill:#040404;}
</style>
<g>
	<path class="st3" d="M66.3,47.4L65.8,43c-0.6-5.4-5.2-9.6-10.7-9.6c-5.9,0-10.7,4.8-10.7,10.7v2H33.5v-2
		c-0.1-5.9-4.9-10.7-10.7-10.7S12,38.2,12,44.1v2H5.8V10.3L0,0.1h36v16.3h17.7V8.6L51,4.7L55.1,0h7.7l1.1,1l3.4,3.8l-2.8,3.8v7.8h2
		l0.3,0.2c0.7,0.2,1.9,1,3.2,2.6c1.4,1.9,3.1,5.5,3.1,12.1c0,6.6-1.7,10.2-3.1,12.1c-0.2,0.2-0.4,0.6-0.7,0.8L66.3,47.4z M37.3,42.1
		h3.1c1.1-7.1,7.3-12.6,14.6-12.6c5.7,0,10.7,3.2,13.2,8.1c0.4-1.5,0.7-3.6,0.7-6.3c0-5.8-1.4-8.6-2.3-9.7c-0.5-0.7-0.9-1-1.2-1.2
		h-5.1V7.3L62,5L61.2,4H57l-0.9,1.1l1.6,2.3v13H31.9V4.1h-25l2.9,5.1V37c2.6-4.5,7.4-7.5,12.9-7.5C30.1,29.5,36.3,35,37.3,42.1z"/>
	<path class="st3" d="M55.6,54.2c-4.8,0-8.8-4-8.8-8.8c0-4.8,4-8.8,8.8-8.8s8.8,3.9,8.8,8.8C64.3,50.3,60.4,54.2,55.6,54.2z
		 M55.6,40.6c-2.6,0-4.7,2.1-4.7,4.7c0,2.6,2.1,4.7,4.7,4.7c2.6,0,4.7-2.1,4.7-4.7C60.3,42.8,58.1,40.6,55.6,40.6z"/>
	<path class="st3" d="M22.6,54.2c-4.8,0-8.8-4-8.8-8.8c0-4.8,4-8.8,8.8-8.8c4.8,0,8.8,3.9,8.8,8.8C31.3,50.3,27.4,54.2,22.6,54.2z
		 M22.6,40.6c-2.6,0-4.7,2.1-4.7,4.7c0,2.6,2.1,4.7,4.7,4.7c2.6,0,4.7-2.1,4.7-4.6C27.3,42.8,25.2,40.6,22.6,40.6z"/>
	<path class="st3" d="M27.8,20.3h-14V6.4h14V20.3L27.8,20.3z M17.9,16.3h5.9v-5.9h-5.9V16.3z"/>
</g>
</svg>
