<?xml version="1.0" encoding="utf-8"?>
<!-- Generator: Adobe Illustrator 23.0.6, SVG Export Plug-In . SVG Version: 6.00 Build 0)  -->
<svg version="1.1" id="Calque_1" xmlns="http://www.w3.org/2000/svg" xmlns:xlink="http://www.w3.org/1999/xlink" x="0px" y="0px"
	 viewBox="0 0 36.7 25.7" style="enable-background:new 0 0 36.7 25.7;" xml:space="preserve">
<style type="text/css">
	.st0{fill-rule:evenodd;clip-rule:evenodd;fill:#BFBFBF;}
	.st1{fill-rule:evenodd;clip-rule:evenodd;fill:#4689A6;}
	.st2{fill-rule:evenodd;clip-rule:evenodd;fill:#A0C35B;}
	.st3{fill:#405E11;}
	.st4{fill-rule:evenodd;clip-rule:evenodd;fill:#C8C8C8;}
	.st5{fill-opacity:0.5;}
	.st6{fill:#BFBFBF;}
	.st7{fill:#C8C8C8;}
	.st8{fill:#E84029;}
	.st9{fill:#FFFFFF;}
	.st10{fill-rule:evenodd;clip-rule:evenodd;fill:#405E11;}
	.st11{fill:#F3F3F3;stroke:#DEDEDE;}
	.st12{fill:#5FBCE3;}
	.st13{fill:#A0C35B;}
	.st14{fill:#040404;}
</style>
<g>
	<path class="st4" d="M12.8,12.8c3.5,0,6.4-2.9,6.4-6.4S16.4,0,12.8,0C9.3,0,6.4,2.9,6.4,6.4S9.3,12.8,12.8,12.8z M0,22.5
		C0,18.2,8.5,16,12.8,16s12.8,2.1,12.8,6.4v3.2H0V22.5z M12.8,19.7c-3.3,0-7,1.2-8.5,2.3h17.1C19.8,20.9,16.1,19.7,12.8,19.7z
		 M15.6,6.4c0-1.5-1.2-2.8-2.8-2.8c-1.5,0-2.8,1.2-2.8,2.8c0,1.5,1.2,2.8,2.8,2.8C14.4,9.2,15.6,7.9,15.6,6.4z M25.7,16.2
		c2.1,1.5,3.6,3.6,3.6,6.3v3.2h7.3v-3.2C36.7,18.8,30.2,16.6,25.7,16.2z M30.2,6.4c0,3.5-2.9,6.4-6.4,6.4c-1,0-1.9-0.2-2.8-0.6
		c1.2-1.6,1.8-3.6,1.8-5.8c0-2.1-0.7-4.1-1.8-5.8C21.9,0.2,22.8,0,23.8,0C27.4,0,30.2,2.9,30.2,6.4z"/>
</g>
</svg>
